modules/waves.vcd
$date
	Thu Nov 11 12:18:31 2021
$end
$version
	Icarus Verilog
$end
$timescale
	1s
$end
$scope module TestBench $end
$var wire 16 ! data_out_of_mem_in_cpu [15:0] $end
$var wire 16 " data_in_mem_out_of_cpu [15:0] $end
$var wire 1 # clock $end
$var wire 1 $ Mem_EN $end
$var wire 1 % Mem_CS $end
$var wire 8 & MAR [7:0] $end
$scope module Mem $end
$var wire 16 ' data_in [15:0] $end
$var wire 1 # clk $end
$var wire 8 ( MAR [7:0] $end
$var wire 1 $ EN $end
$var wire 1 % CS $end
$var reg 16 ) data_out [15:0] $end
$upscope $end
$scope module clock_generator $end
$var reg 1 # clock $end
$upscope $end
$scope module cpu $end
$var wire 16 * MBR_in [15:0] $end
$var wire 1 # clk $end
$var reg 16 + IR [15:0] $end
$var reg 8 , MAR [7:0] $end
$var reg 16 - MBR_out [15:0] $end
$var reg 1 % Mem_CS $end
$var reg 1 $ Mem_EN $end
$var reg 16 . PC [15:0] $end
$var reg 3 / state [2:0] $end
$upscope $end
$upscope $end
$enddefinitions $end
#0
$dumpvars
b0 /
b10100 .
bx -
bx ,
bx +
bx *
bx )
bx (
bx '
bx &
0%
0$
0#
bx "
bx !
$end
#5
1#
#8
b10100 &
b10100 (
b10100 ,
b1 /
1$
#10
0#
#15
1#
#16
b11000100011110 !
b11000100011110 )
b11000100011110 *
#17
b10101 .
b11000100011110 +
b10 /
0$
#20
0#
#25
1#
#27
b11110 &
b11110 (
b11110 ,
b11 /
#30
0#
#35
1#
#37
1$
b100 /
#40
0#
#45
1#
#46
b101 !
b101 )
b101 *
#47
b0 /
0$
#50
0#
#55
1#
#58
b10101 &
b10101 (
b10101 ,
b1 /
1$
#60
0#
#65
1#
#66
b111000100011111 !
b111000100011111 )
b111000100011111 *
#67
b10110 .
b111000100011111 +
b10 /
0$
#70
0#
#75
1#
#77
b11111 &
b11111 (
b11111 ,
b11 /
#80
0#
#85
1#
#87
1$
b100 /
#90
0#
#95
1#
#96
b1000 !
b1000 )
b1000 *
#97
b0 /
0$
#100
0#
#105
1#
#108
b10110 &
b10110 (
b10110 ,
b1 /
1$
#110
0#
#115
1#
#116
b1011000100100000 !
b1011000100100000 )
b1011000100100000 *
#117
b10111 .
b1011000100100000 +
b10 /
0$
#120
0#
#125
1#
#127
b100000 &
b100000 (
b100000 ,
b11 /
#130
0#
#135
1#
#137
b100 /
#140
0#
#145
1#
#147
b1101 "
b1101 '
b1101 -
b0 /
1%
1$
#150
0#
#155
1#
#158
b10111 &
b10111 (
b10111 ,
b1 /
0%
#160
0#
#165
1#
#166
bx !
bx )
bx *
#167
b11000 .
bx +
b10 /
0$
#170
0#
#175
1#
#177
bx &
bx (
bx ,
b11 /
#180
0#
#185
1#
#187
b101 /
